pex_regincr/RegIncrFlat_test.vcd
$date
    Fri Aug 31 14:38:39 2012
$end
$version
    PyMTL ?.??
$end
$timescale
    1ns
$end

$upscope $end
$scope module toplevel $end
$var reg 1 ! reset $end
$var reg 16 " in_ $end
$var reg 16 # out $end
$var reg 16 $ reg $end
$var reg 1 % clk $end

$enddefinitions $end
$dumpvars
0!
s0x8 "
s0x8 #
s0x8 $
0%
$end
1!
s1 #
#0
1%
s0 $
#1
0%
#2
1%
#3
0%
0!
s1 "
#4
1%
s1 $
s2 #
#5
0%
s2 "
#6
1%
s2 $
s3 #
#7
0%
s13 "
#8
1%
s13 $
s14 #
#9
0%
s42 "
#10
1%
s42 $
s43 #
#11
0%
#12
1%
#13
0%
#14
1%
#15
0%
#16
1%
#17
0%
s51 "
#18
1%
s51 $
s52 #
